{
  "files": {
    "main.css": "/static/css/main.a6c76862.css",
    "main.js": "/static/js/main.7e625fd3.js",
    "static/media/5.IJIIE 3(2-3) Paper 2.pdf": "/static/media/5.IJIIE 3(2-3) Paper 2.8b33e64dddd68d7ab8c9.pdf",
    "static/media/4._India study (1).pdf": "/static/media/4._India study (1).eee6f7601566e85fbc3f.pdf",
    "static/media/3.Integrating_Technology_and_Pedagogy_for.pdf": "/static/media/3.Integrating_Technology_and_Pedagogy_for.bee8539decbc8c3f84da.pdf",
    "static/media/6.Paul Kim study2_Paper.pdf": "/static/media/6.Paul Kim study2_Paper.c1f9a70613ae2602a2e7.pdf",
    "static/media/7.action research.pdf": "/static/media/7.action research.2dcaeed6a4daf06314e8.pdf",
    "static/media/1.New_Evaluation_Vector.pdf": "/static/media/1.New_Evaluation_Vector.be4ea7d2613ed8e6bf6a.pdf",
    "static/media/2.SMILE Jumpstart.pdf": "/static/media/2.SMILE Jumpstart.d5322cec2c9d3fa63658.pdf",
    "static/media/8.SMILE_Donggil_Math.pdf": "/static/media/8.SMILE_Donggil_Math.13e2e341e25204c78265.pdf",
    "static/media/smile3.png": "/static/media/smile3.ea27d0f703e4a4889e3a.png",
    "static/media/dalle-videos.jpeg": "/static/media/dalle-videos.34a11ca65df21148e310.jpeg",
    "static/media/dalle-about-smile.jpg": "/static/media/dalle-about-smile.43ab442786250f517447.jpg",
    "static/media/dalle-research.jpeg": "/static/media/dalle-research.ada929cf87d5e4db7594.jpeg",
    "static/media/smile8.png": "/static/media/smile8.70e78dfb003a2190e2d1.png",
    "static/media/default.png": "/static/media/default.3a737bd5157ebba7ab10.png",
    "static/media/smile6.jpeg": "/static/media/smile6.c41db12a9400db20e7e3.jpeg",
    "static/media/smile11.png": "/static/media/smile11.08d2efa582b77b2aed50.png",
    "static/media/smile7.jpeg": "/static/media/smile7.9d4bc300b973fe4816d2.jpeg",
    "static/media/smile9.png": "/static/media/smile9.7eef5bc9afbfcd5cf839.png",
    "static/media/jack-stapleton-8lokOUd8tLI.jpg": "/static/media/jack-stapleton-8lokOUd8tLI.311095cce18d7d8b3d79.jpg",
    "static/media/smile10.png": "/static/media/smile10.bd93f29a399ed44cec5c.png",
    "static/media/groupdefault.jpg": "/static/media/groupdefault.8c06ab4ec21f6c8730b9.jpg",
    "static/media/logo3.png": "/static/media/logo3.d27507f8070746ef2c16.png",
    "index.html": "/index.html",
    "main.a6c76862.css.map": "/static/css/main.a6c76862.css.map",
    "main.7e625fd3.js.map": "/static/js/main.7e625fd3.js.map"
  },
  "entrypoints": [
    "static/css/main.a6c76862.css",
    "static/js/main.7e625fd3.js"
  ]
}